…
## What is mean total number of steps taken per day?

1. Calculate the total number of steps taken per day


```r
dailySteps <- group_by(activity, date) %>%
        summarize(totalSteps = sum(steps))
print(dailySteps)
```

```
## # A tibble: 61 x 2
##    date       totalSteps
##    <fct>           <int>
##  1 2012-10-01         NA
##  2 2012-10-02        126
##  3 2012-10-03      11352
##  4 2012-10-04      12116
##  5 2012-10-05      13294
##  6 2012-10-06      15420
##  7 2012-10-07      11015
##  8 2012-10-08         NA
##  9 2012-10-09      12811
## 10 2012-10-10       9900
## # ... with 51 more rows
```
…
```r
#join the data frame with mean values for each interval to the activity data
filled <- left_join(activity, dailyProfile, by = "interval")

#subset the na values and give it the value from the mean value interval column
filled$steps[is.na(filled$steps)] <- filled$intervalSteps[is.na(filled$steps)]

#remove the mean column so that the data is the same format as original
filled <- select(filled, -intervalSteps)

print(filled)
```

```
## # A tibble: 17,568 x 3
##     steps date       interval
##     <dbl> <fct>         <int>
##  1 1.72   2012-10-01        0
##  2 0.340  2012-10-01        5
##  3 0.132  2012-10-01       10
##  4 0.151  2012-10-01       15
##  5 0.0755 2012-10-01       20
##  6 2.09   2012-10-01       25
##  7 0.528  2012-10-01       30
##  8 0.868  2012-10-01       35
##  9 0      2012-10-01       40
## 10 1.47   2012-10-01       45
## # ... with 17,558 more rows
```

4. Make a histogram of the total number of steps taken each day with the filled NA data; and calculate the new mean and median


```r
dailySteps2 <- group_by(filled, date) %>%
        summarize(totalSteps = sum(steps))
print(dailySteps2)
```

```
## # A tibble: 61 x 2
##    date       totalSteps
##    <fct>           <dbl>
##  1 2012-10-01     10766.
##  2 2012-10-02       126 
##  3 2012-10-03     11352 
##  4 2012-10-04     12116 
##  5 2012-10-05     13294 
##  6 2012-10-06     15420 
##  7 2012-10-07     11015 
##  8 2012-10-08     10766.
##  9 2012-10-09     12811 
## 10 2012-10-10      9900 
## # ... with 51 more rows
```
…
weekend <- c("Sat", "Sun")

filled <- mutate(filled, dayOfWeek = wday(date, label = TRUE)) %>%
        mutate(weekend = dayOfWeek %in% weekend)

filled$weekend <- factor(filled$weekend, 
                         levels = c(TRUE, FALSE), 
                         labels = c("weekend", "weekday")
                        )

print(filled)
```

```
## # A tibble: 17,568 x 5
##     steps date       interval dayOfWeek weekend
##     <dbl> <date>        <int> <ord>     <fct>  
##  1 1.72   2012-10-01        0 Mon       weekday
##  2 0.340  2012-10-01        5 Mon       weekday
##  3 0.132  2012-10-01       10 Mon       weekday
##  4 0.151  2012-10-01       15 Mon       weekday
##  5 0.0755 2012-10-01       20 Mon       weekday
##  6 2.09   2012-10-01       25 Mon       weekday
##  7 0.528  2012-10-01       30 Mon       weekday
##  8 0.868  2012-10-01       35 Mon       weekday
##  9 0      2012-10-01       40 Mon       weekday
## 10 1.47   2012-10-01       45 Mon       weekday
## # ... with 17,558 more rows
```
…
